%YAML 1.1
%TAG !u! tag:unity3d.com,2011:
--- !u!114 &11400000
MonoBehaviour:
  m_ObjectHideFlags: 0
  m_CorrespondingSourceObject: {fileID: 0}
  m_PrefabInstance: {fileID: 0}
  m_PrefabAsset: {fileID: 0}
  m_GameObject: {fileID: 0}
  m_Enabled: 1
  m_EditorHideFlags: 0
  m_Script: {fileID: 11500000, guid: 814d560c95854f25bf181f84c3ed1a2d, type: 3}
  m_Name: New Weapon Data
  m_EditorClassIdentifier: 
  _sprite: {fileID: 0}
  _weaponName: 
  _description: This weapon is epic.
  _damage: 0
  _applyOverTime: 0
  _duration: 0
  _damageType: 0
  _isMagical: 0
  _manaUsage: 0
  _staminaUsage: 40.3
  _uiSprite: {fileID: 0}
  _displayName: 
  _onSlashSFX: {fileID: 0}
  _onHitSFX: {fileID: 0}
  _onSlashVFX: {fileID: 0}
  _onHitVFX: {fileID: 0}
